<?xml version="1.0" encoding="UTF-8"?>
<gpx creator="StravaGPX" version="1.1" xmlns="http://www.topografix.com/GPX/1/1" xmlns:xsi="http://www.w3.org/2001/XMLSchema-instance" xsi:schemaLocation="http://www.topografix.com/GPX/1/1 http://www.topografix.com/GPX/1/1/gpx.xsd">
 <metadata>
  <time>2018-04-25T07:07:41Z</time>
 </metadata>
 <trk>
  <name>To work #commute</name>
  <trkseg>
   <trkpt lat="41.4152870" lon="2.1551570">
    <ele>155.0</ele>
    <time>2018-04-25T07:07:41Z</time>
   </trkpt>
   <trkpt lat="41.4151950" lon="2.1553480">
    <ele>155.0</ele>
    <time>2018-04-25T07:07:46Z</time>
   </trkpt>
   <trkpt lat="41.4151360" lon="2.1556290">
    <ele>155.0</ele>
    <time>2018-04-25T07:07:49Z</time>
   </trkpt>
   <trkpt lat="41.4151560" lon="2.1559200">
    <ele>154.3</ele>
    <time>2018-04-25T07:07:52Z</time>
   </trkpt>
   <trkpt lat="41.4152050" lon="2.1560880">
    <ele>153.1</ele>
    <time>2018-04-25T07:07:54Z</time>
   </trkpt>
   <trkpt lat="41.4153190" lon="2.1563550">
    <ele>151.2</ele>
    <time>2018-04-25T07:07:57Z</time>
   </trkpt>
   <trkpt lat="41.4154710" lon="2.1566030">
    <ele>150.0</ele>
    <time>2018-04-25T07:08:00Z</time>
   </trkpt>
   <trkpt lat="41.4156250" lon="2.1568610">
    <ele>149.6</ele>
    <time>2018-04-25T07:08:03Z</time>
   </trkpt>
   <trkpt lat="41.4157640" lon="2.1571050">
    <ele>148.3</ele>
    <time>2018-04-25T07:08:06Z</time>
   </trkpt>
   <trkpt lat="41.4159020" lon="2.1573420">
    <ele>146.6</ele>
    <time>2018-04-25T07:08:09Z</time>
   </trkpt>
   <trkpt lat="41.4159260" lon="2.1574340">
    <ele>145.9</ele>
    <time>2018-04-25T07:08:10Z</time>
   </trkpt>
   <trkpt lat="41.4159100" lon="2.1577170">
    <ele>143.9</ele>
    <time>2018-04-25T07:08:13Z</time>
   </trkpt>
   <trkpt lat="41.4157730" lon="2.1579320">
    <ele>141.1</ele>
    <time>2018-04-25T07:08:16Z</time>
   </trkpt>
   <trkpt lat="41.4156620" lon="2.1580270">
    <ele>139.6</ele>
    <time>2018-04-25T07:08:18Z</time>
   </trkpt>
   <trkpt lat="41.4155610" lon="2.1581030">
    <ele>138.3</ele>
    <time>2018-04-25T07:08:20Z</time>
   </trkpt>
   <trkpt lat="41.4153930" lon="2.1582630">
    <ele>136.3</ele>
    <time>2018-04-25T07:08:33Z</time>
   </trkpt>
   <trkpt lat="41.4152330" lon="2.1583980">
    <ele>134.6</ele>
    <time>2018-04-25T07:08:38Z</time>
   </trkpt>
   <trkpt lat="41.4150650" lon="2.1585300">
    <ele>132.8</ele>
    <time>2018-04-25T07:08:42Z</time>
   </trkpt>
   <trkpt lat="41.4149090" lon="2.1586760">
    <ele>132.0</ele>
    <time>2018-04-25T07:08:45Z</time>
   </trkpt>
   <trkpt lat="41.4147560" lon="2.1588420">
    <ele>132.0</ele>
    <time>2018-04-25T07:08:48Z</time>
   </trkpt>
   <trkpt lat="41.4146000" lon="2.1590390">
    <ele>131.4</ele>
    <time>2018-04-25T07:08:51Z</time>
   </trkpt>
   <trkpt lat="41.4144650" lon="2.1592390">
    <ele>130.0</ele>
    <time>2018-04-25T07:08:54Z</time>
   </trkpt>
   <trkpt lat="41.4143140" lon="2.1594680">
    <ele>129.6</ele>
    <time>2018-04-25T07:08:57Z</time>
   </trkpt>
   <trkpt lat="41.4141810" lon="2.1597420">
    <ele>128.9</ele>
    <time>2018-04-25T07:09:00Z</time>
   </trkpt>
   <trkpt lat="41.4140740" lon="2.1599970">
    <ele>128.0</ele>
    <time>2018-04-25T07:09:03Z</time>
   </trkpt>
   <trkpt lat="41.4140420" lon="2.1600790">
    <ele>127.7</ele>
    <time>2018-04-25T07:09:04Z</time>
   </trkpt>
   <trkpt lat="41.4139600" lon="2.1603240">
    <ele>126.6</ele>
    <time>2018-04-25T07:09:07Z</time>
   </trkpt>
   <trkpt lat="41.4139420" lon="2.1604030">
    <ele>126.2</ele>
    <time>2018-04-25T07:09:08Z</time>
   </trkpt>
   <trkpt lat="41.4139420" lon="2.1606450">
    <ele>124.8</ele>
    <time>2018-04-25T07:09:13Z</time>
   </trkpt>
   <trkpt lat="41.4140450" lon="2.1608840">
    <ele>123.5</ele>
    <time>2018-04-25T07:09:19Z</time>
   </trkpt>
   <trkpt lat="41.4140600" lon="2.1609490">
    <ele>123.3</ele>
    <time>2018-04-25T07:09:20Z</time>
   </trkpt>
   <trkpt lat="41.4140280" lon="2.1611910">
    <ele>123.0</ele>
    <time>2018-04-25T07:09:24Z</time>
   </trkpt>
   <trkpt lat="41.4140110" lon="2.1612420">
    <ele>123.1</ele>
    <time>2018-04-25T07:09:25Z</time>
   </trkpt>
   <trkpt lat="41.4139730" lon="2.1612700">
    <ele>123.2</ele>
    <time>2018-04-25T07:09:26Z</time>
   </trkpt>
   <trkpt lat="41.4138630" lon="2.1613160">
    <ele>122.8</ele>
    <time>2018-04-25T07:09:30Z</time>
   </trkpt>
   <trkpt lat="41.4137480" lon="2.1612770">
    <ele>123.0</ele>
    <time>2018-04-25T07:09:33Z</time>
   </trkpt>
   <trkpt lat="41.4135640" lon="2.1611820">
    <ele>123.0</ele>
    <time>2018-04-25T07:09:39Z</time>
   </trkpt>
   <trkpt lat="41.4134850" lon="2.1612150">
    <ele>122.1</ele>
    <time>2018-04-25T07:09:42Z</time>
   </trkpt>
   <trkpt lat="41.4133570" lon="2.1613960">
    <ele>120.3</ele>
    <time>2018-04-25T07:09:50Z</time>
   </trkpt>
   <trkpt lat="41.4131720" lon="2.1615830">
    <ele>117.7</ele>
    <time>2018-04-25T07:09:55Z</time>
   </trkpt>
   <trkpt lat="41.4129970" lon="2.1617350">
    <ele>115.2</ele>
    <time>2018-04-25T07:10:00Z</time>
   </trkpt>
   <trkpt lat="41.4128220" lon="2.1618690">
    <ele>112.3</ele>
    <time>2018-04-25T07:10:45Z</time>
   </trkpt>
   <trkpt lat="41.4126560" lon="2.1620040">
    <ele>110.2</ele>
    <time>2018-04-25T07:10:51Z</time>
   </trkpt>
   <trkpt lat="41.4124940" lon="2.1621590">
    <ele>104.7</ele>
    <time>2018-04-25T07:10:59Z</time>
   </trkpt>
   <trkpt lat="41.4123180" lon="2.1623210">
    <ele>98.6</ele>
    <time>2018-04-25T07:11:03Z</time>
   </trkpt>
   <trkpt lat="41.4121280" lon="2.1624950">
    <ele>99.6</ele>
    <time>2018-04-25T07:11:06Z</time>
   </trkpt>
   <trkpt lat="41.4119170" lon="2.1626630">
    <ele>102.5</ele>
    <time>2018-04-25T07:11:09Z</time>
   </trkpt>
   <trkpt lat="41.4117060" lon="2.1628170">
    <ele>106.5</ele>
    <time>2018-04-25T07:11:12Z</time>
   </trkpt>
   <trkpt lat="41.4115220" lon="2.1629710">
    <ele>108.0</ele>
    <time>2018-04-25T07:11:16Z</time>
   </trkpt>
   <trkpt lat="41.4113890" lon="2.1631830">
    <ele>108.0</ele>
    <time>2018-04-25T07:11:21Z</time>
   </trkpt>
   <trkpt lat="41.4112640" lon="2.1630840">
    <ele>108.0</ele>
    <time>2018-04-25T07:11:59Z</time>
   </trkpt>
   <trkpt lat="41.4112240" lon="2.1629560">
    <ele>108.0</ele>
    <time>2018-04-25T07:12:32Z</time>
   </trkpt>
   <trkpt lat="41.4111690" lon="2.1629100">
    <ele>107.3</ele>
    <time>2018-04-25T07:13:34Z</time>
   </trkpt>
   <trkpt lat="41.4112060" lon="2.1628720">
    <ele>106.9</ele>
    <time>2018-04-25T07:13:45Z</time>
   </trkpt>
   <trkpt lat="41.4112280" lon="2.1631440">
    <ele>104.8</ele>
    <time>2018-04-25T07:14:18Z</time>
   </trkpt>
   <trkpt lat="41.4110560" lon="2.1633370">
    <ele>102.2</ele>
    <time>2018-04-25T07:14:24Z</time>
   </trkpt>
   <trkpt lat="41.4108990" lon="2.1634870">
    <ele>99.2</ele>
    <time>2018-04-25T07:14:28Z</time>
   </trkpt>
   <trkpt lat="41.4107620" lon="2.1636780">
    <ele>95.9</ele>
    <time>2018-04-25T07:14:32Z</time>
   </trkpt>
   <trkpt lat="41.4106900" lon="2.1637200">
    <ele>95.0</ele>
    <time>2018-04-25T07:14:33Z</time>
   </trkpt>
   <trkpt lat="41.4105510" lon="2.1638720">
    <ele>95.0</ele>
    <time>2018-04-25T07:14:36Z</time>
   </trkpt>
   <trkpt lat="41.4104060" lon="2.1640330">
    <ele>95.0</ele>
    <time>2018-04-25T07:14:39Z</time>
   </trkpt>
   <trkpt lat="41.4102480" lon="2.1642310">
    <ele>95.0</ele>
    <time>2018-04-25T07:14:42Z</time>
   </trkpt>
   <trkpt lat="41.4102260" lon="2.1643310">
    <ele>94.5</ele>
    <time>2018-04-25T07:14:43Z</time>
   </trkpt>
   <trkpt lat="41.4101290" lon="2.1645610">
    <ele>92.2</ele>
    <time>2018-04-25T07:14:46Z</time>
   </trkpt>
   <trkpt lat="41.4099880" lon="2.1647560">
    <ele>90.5</ele>
    <time>2018-04-25T07:14:49Z</time>
   </trkpt>
   <trkpt lat="41.4098830" lon="2.1649610">
    <ele>88.8</ele>
    <time>2018-04-25T07:14:51Z</time>
   </trkpt>
   <trkpt lat="41.4097660" lon="2.1651480">
    <ele>87.2</ele>
    <time>2018-04-25T07:14:53Z</time>
   </trkpt>
   <trkpt lat="41.4096370" lon="2.1653400">
    <ele>85.3</ele>
    <time>2018-04-25T07:14:55Z</time>
   </trkpt>
   <trkpt lat="41.4094950" lon="2.1654890">
    <ele>83.6</ele>
    <time>2018-04-25T07:14:57Z</time>
   </trkpt>
   <trkpt lat="41.4093510" lon="2.1656580">
    <ele>81.6</ele>
    <time>2018-04-25T07:14:59Z</time>
   </trkpt>
   <trkpt lat="41.4092190" lon="2.1658480">
    <ele>79.5</ele>
    <time>2018-04-25T07:15:01Z</time>
   </trkpt>
   <trkpt lat="41.4090660" lon="2.1660230">
    <ele>77.0</ele>
    <time>2018-04-25T07:15:03Z</time>
   </trkpt>
   <trkpt lat="41.4089110" lon="2.1662060">
    <ele>76.9</ele>
    <time>2018-04-25T07:15:05Z</time>
   </trkpt>
   <trkpt lat="41.4087110" lon="2.1664160">
    <ele>77.0</ele>
    <time>2018-04-25T07:15:07Z</time>
   </trkpt>
   <trkpt lat="41.4085140" lon="2.1666170">
    <ele>77.0</ele>
    <time>2018-04-25T07:15:09Z</time>
   </trkpt>
   <trkpt lat="41.4082990" lon="2.1668810">
    <ele>76.9</ele>
    <time>2018-04-25T07:15:11Z</time>
   </trkpt>
   <trkpt lat="41.4081100" lon="2.1670970">
    <ele>77.0</ele>
    <time>2018-04-25T07:15:13Z</time>
   </trkpt>
   <trkpt lat="41.4079450" lon="2.1672870">
    <ele>76.8</ele>
    <time>2018-04-25T07:15:15Z</time>
   </trkpt>
   <trkpt lat="41.4077730" lon="2.1675230">
    <ele>76.3</ele>
    <time>2018-04-25T07:15:18Z</time>
   </trkpt>
   <trkpt lat="41.4077410" lon="2.1676170">
    <ele>76.2</ele>
    <time>2018-04-25T07:15:19Z</time>
   </trkpt>
   <trkpt lat="41.4076280" lon="2.1678250">
    <ele>76.0</ele>
    <time>2018-04-25T07:15:23Z</time>
   </trkpt>
   <trkpt lat="41.4074680" lon="2.1680440">
    <ele>74.6</ele>
    <time>2018-04-25T07:15:28Z</time>
   </trkpt>
   <trkpt lat="41.4073160" lon="2.1682300">
    <ele>73.4</ele>
    <time>2018-04-25T07:15:32Z</time>
   </trkpt>
   <trkpt lat="41.4071870" lon="2.1684420">
    <ele>72.7</ele>
    <time>2018-04-25T07:15:35Z</time>
   </trkpt>
   <trkpt lat="41.4070070" lon="2.1686300">
    <ele>72.9</ele>
    <time>2018-04-25T07:15:38Z</time>
   </trkpt>
   <trkpt lat="41.4068200" lon="2.1688520">
    <ele>71.4</ele>
    <time>2018-04-25T07:15:41Z</time>
   </trkpt>
   <trkpt lat="41.4066350" lon="2.1691280">
    <ele>68.6</ele>
    <time>2018-04-25T07:15:44Z</time>
   </trkpt>
   <trkpt lat="41.4064960" lon="2.1693070">
    <ele>67.1</ele>
    <time>2018-04-25T07:15:46Z</time>
   </trkpt>
   <trkpt lat="41.4063540" lon="2.1694780">
    <ele>65.8</ele>
    <time>2018-04-25T07:15:48Z</time>
   </trkpt>
   <trkpt lat="41.4061590" lon="2.1696590">
    <ele>64.6</ele>
    <time>2018-04-25T07:15:51Z</time>
   </trkpt>
   <trkpt lat="41.4060290" lon="2.1698270">
    <ele>63.9</ele>
    <time>2018-04-25T07:15:53Z</time>
   </trkpt>
   <trkpt lat="41.4058460" lon="2.1700730">
    <ele>63.2</ele>
    <time>2018-04-25T07:15:56Z</time>
   </trkpt>
   <trkpt lat="41.4056700" lon="2.1703090">
    <ele>62.4</ele>
    <time>2018-04-25T07:15:59Z</time>
   </trkpt>
   <trkpt lat="41.4055400" lon="2.1704910">
    <ele>62.2</ele>
    <time>2018-04-25T07:16:01Z</time>
   </trkpt>
   <trkpt lat="41.4054230" lon="2.1706770">
    <ele>62.4</ele>
    <time>2018-04-25T07:16:03Z</time>
   </trkpt>
   <trkpt lat="41.4052580" lon="2.1708610">
    <ele>62.1</ele>
    <time>2018-04-25T07:16:06Z</time>
   </trkpt>
   <trkpt lat="41.4051050" lon="2.1710710">
    <ele>60.7</ele>
    <time>2018-04-25T07:16:09Z</time>
   </trkpt>
   <trkpt lat="41.4049330" lon="2.1712750">
    <ele>58.7</ele>
    <time>2018-04-25T07:16:13Z</time>
   </trkpt>
   <trkpt lat="41.4047910" lon="2.1715300">
    <ele>55.8</ele>
    <time>2018-04-25T07:16:16Z</time>
   </trkpt>
   <trkpt lat="41.4047030" lon="2.1717510">
    <ele>54.3</ele>
    <time>2018-04-25T07:16:18Z</time>
   </trkpt>
   <trkpt lat="41.4045750" lon="2.1719450">
    <ele>53.0</ele>
    <time>2018-04-25T07:16:20Z</time>
   </trkpt>
   <trkpt lat="41.4044330" lon="2.1721300">
    <ele>52.1</ele>
    <time>2018-04-25T07:16:22Z</time>
   </trkpt>
   <trkpt lat="41.4043060" lon="2.1723040">
    <ele>51.3</ele>
    <time>2018-04-25T07:16:24Z</time>
   </trkpt>
   <trkpt lat="41.4041510" lon="2.1725330">
    <ele>50.5</ele>
    <time>2018-04-25T07:16:27Z</time>
   </trkpt>
   <trkpt lat="41.4039910" lon="2.1727380">
    <ele>50.0</ele>
    <time>2018-04-25T07:16:31Z</time>
   </trkpt>
   <trkpt lat="41.4038740" lon="2.1729570">
    <ele>50.3</ele>
    <time>2018-04-25T07:16:37Z</time>
   </trkpt>
   <trkpt lat="41.4037160" lon="2.1731230">
    <ele>50.2</ele>
    <time>2018-04-25T07:16:42Z</time>
   </trkpt>
   <trkpt lat="41.4035710" lon="2.1732980">
    <ele>50.0</ele>
    <time>2018-04-25T07:16:48Z</time>
   </trkpt>
   <trkpt lat="41.4034000" lon="2.1733700">
    <ele>47.7</ele>
    <time>2018-04-25T07:17:22Z</time>
   </trkpt>
   <trkpt lat="41.4032330" lon="2.1734930">
    <ele>45.3</ele>
    <time>2018-04-25T07:17:29Z</time>
   </trkpt>
   <trkpt lat="41.4030680" lon="2.1736780">
    <ele>43.7</ele>
    <time>2018-04-25T07:17:33Z</time>
   </trkpt>
   <trkpt lat="41.4030260" lon="2.1737200">
    <ele>43.5</ele>
    <time>2018-04-25T07:17:34Z</time>
   </trkpt>
   <trkpt lat="41.4028500" lon="2.1739140">
    <ele>42.4</ele>
    <time>2018-04-25T07:17:38Z</time>
   </trkpt>
   <trkpt lat="41.4027050" lon="2.1741260">
    <ele>41.5</ele>
    <time>2018-04-25T07:17:45Z</time>
   </trkpt>
   <trkpt lat="41.4025820" lon="2.1743310">
    <ele>40.9</ele>
    <time>2018-04-25T07:18:14Z</time>
   </trkpt>
   <trkpt lat="41.4024270" lon="2.1744850">
    <ele>40.7</ele>
    <time>2018-04-25T07:18:19Z</time>
   </trkpt>
   <trkpt lat="41.4022740" lon="2.1746360">
    <ele>40.9</ele>
    <time>2018-04-25T07:18:23Z</time>
   </trkpt>
   <trkpt lat="41.4022160" lon="2.1749100">
    <ele>41.3</ele>
    <time>2018-04-25T07:18:27Z</time>
   </trkpt>
   <trkpt lat="41.4021200" lon="2.1751200">
    <ele>41.9</ele>
    <time>2018-04-25T07:18:37Z</time>
   </trkpt>
   <trkpt lat="41.4019860" lon="2.1753320">
    <ele>42.5</ele>
    <time>2018-04-25T07:19:01Z</time>
   </trkpt>
   <trkpt lat="41.4017960" lon="2.1755110">
    <ele>43.0</ele>
    <time>2018-04-25T07:19:06Z</time>
   </trkpt>
   <trkpt lat="41.4016520" lon="2.1756690">
    <ele>42.7</ele>
    <time>2018-04-25T07:19:09Z</time>
   </trkpt>
   <trkpt lat="41.4015340" lon="2.1758760">
    <ele>42.6</ele>
    <time>2018-04-25T07:19:12Z</time>
   </trkpt>
   <trkpt lat="41.4013350" lon="2.1761400">
    <ele>42.4</ele>
    <time>2018-04-25T07:19:16Z</time>
   </trkpt>
   <trkpt lat="41.4011830" lon="2.1763880">
    <ele>42.0</ele>
    <time>2018-04-25T07:19:19Z</time>
   </trkpt>
   <trkpt lat="41.4010500" lon="2.1765810">
    <ele>42.0</ele>
    <time>2018-04-25T07:19:21Z</time>
   </trkpt>
   <trkpt lat="41.4009040" lon="2.1767540">
    <ele>42.0</ele>
    <time>2018-04-25T07:19:23Z</time>
   </trkpt>
   <trkpt lat="41.4007180" lon="2.1769710">
    <ele>36.0</ele>
    <time>2018-04-25T07:19:26Z</time>
   </trkpt>
   <trkpt lat="41.4005750" lon="2.1772180">
    <ele>36.0</ele>
    <time>2018-04-25T07:19:29Z</time>
   </trkpt>
   <trkpt lat="41.4004190" lon="2.1774310">
    <ele>35.6</ele>
    <time>2018-04-25T07:19:32Z</time>
   </trkpt>
   <trkpt lat="41.4002600" lon="2.1776160">
    <ele>35.9</ele>
    <time>2018-04-25T07:19:35Z</time>
   </trkpt>
   <trkpt lat="41.4001010" lon="2.1778220">
    <ele>36.0</ele>
    <time>2018-04-25T07:19:38Z</time>
   </trkpt>
   <trkpt lat="41.3999700" lon="2.1780040">
    <ele>36.3</ele>
    <time>2018-04-25T07:19:40Z</time>
   </trkpt>
   <trkpt lat="41.3998100" lon="2.1782380">
    <ele>37.0</ele>
    <time>2018-04-25T07:19:43Z</time>
   </trkpt>
   <trkpt lat="41.3997010" lon="2.1784050">
    <ele>37.6</ele>
    <time>2018-04-25T07:19:46Z</time>
   </trkpt>
   <trkpt lat="41.3995770" lon="2.1786560">
    <ele>38.6</ele>
    <time>2018-04-25T07:19:55Z</time>
   </trkpt>
   <trkpt lat="41.3994320" lon="2.1788810">
    <ele>39.5</ele>
    <time>2018-04-25T07:19:58Z</time>
   </trkpt>
   <trkpt lat="41.3992780" lon="2.1791360">
    <ele>39.4</ele>
    <time>2018-04-25T07:20:01Z</time>
   </trkpt>
   <trkpt lat="41.3991060" lon="2.1793960">
    <ele>37.2</ele>
    <time>2018-04-25T07:20:04Z</time>
   </trkpt>
   <trkpt lat="41.3989180" lon="2.1796190">
    <ele>35.6</ele>
    <time>2018-04-25T07:20:07Z</time>
   </trkpt>
   <trkpt lat="41.3987800" lon="2.1797970">
    <ele>34.4</ele>
    <time>2018-04-25T07:20:10Z</time>
   </trkpt>
   <trkpt lat="41.3986440" lon="2.1799830">
    <ele>33.0</ele>
    <time>2018-04-25T07:20:14Z</time>
   </trkpt>
   <trkpt lat="41.3984730" lon="2.1801570">
    <ele>31.5</ele>
    <time>2018-04-25T07:20:18Z</time>
   </trkpt>
   <trkpt lat="41.3983000" lon="2.1803220">
    <ele>31.6</ele>
    <time>2018-04-25T07:20:22Z</time>
   </trkpt>
   <trkpt lat="41.3981500" lon="2.1804690">
    <ele>32.1</ele>
    <time>2018-04-25T07:20:25Z</time>
   </trkpt>
   <trkpt lat="41.3979840" lon="2.1806190">
    <ele>32.3</ele>
    <time>2018-04-25T07:20:28Z</time>
   </trkpt>
   <trkpt lat="41.3978060" lon="2.1808330">
    <ele>32.5</ele>
    <time>2018-04-25T07:20:32Z</time>
   </trkpt>
   <trkpt lat="41.3976650" lon="2.1810570">
    <ele>32.7</ele>
    <time>2018-04-25T07:20:34Z</time>
   </trkpt>
   <trkpt lat="41.3975730" lon="2.1810930">
    <ele>32.8</ele>
    <time>2018-04-25T07:21:05Z</time>
   </trkpt>
   <trkpt lat="41.3974620" lon="2.1813110">
    <ele>32.9</ele>
    <time>2018-04-25T07:21:12Z</time>
   </trkpt>
   <trkpt lat="41.3972950" lon="2.1814980">
    <ele>32.7</ele>
    <time>2018-04-25T07:21:16Z</time>
   </trkpt>
   <trkpt lat="41.3971680" lon="2.1816770">
    <ele>32.3</ele>
    <time>2018-04-25T07:21:19Z</time>
   </trkpt>
   <trkpt lat="41.3970220" lon="2.1818370">
    <ele>31.9</ele>
    <time>2018-04-25T07:21:22Z</time>
   </trkpt>
   <trkpt lat="41.3968610" lon="2.1820120">
    <ele>31.3</ele>
    <time>2018-04-25T07:21:26Z</time>
   </trkpt>
   <trkpt lat="41.3969130" lon="2.1821480">
    <ele>31.0</ele>
    <time>2018-04-25T07:21:33Z</time>
   </trkpt>
   <trkpt lat="41.3971070" lon="2.1822930">
    <ele>31.4</ele>
    <time>2018-04-25T07:21:38Z</time>
   </trkpt>
   <trkpt lat="41.3973080" lon="2.1824110">
    <ele>32.0</ele>
    <time>2018-04-25T07:21:43Z</time>
   </trkpt>
   <trkpt lat="41.3975030" lon="2.1825270">
    <ele>32.3</ele>
    <time>2018-04-25T07:21:46Z</time>
   </trkpt>
   <trkpt lat="41.3976680" lon="2.1826550">
    <ele>32.6</ele>
    <time>2018-04-25T07:21:49Z</time>
   </trkpt>
   <trkpt lat="41.3978780" lon="2.1825560">
    <ele>33.0</ele>
    <time>2018-04-25T07:21:52Z</time>
   </trkpt>
   <trkpt lat="41.3980820" lon="2.1825850">
    <ele>35.2</ele>
    <time>2018-04-25T07:22:01Z</time>
   </trkpt>
   <trkpt lat="41.3982660" lon="2.1826910">
    <ele>33.0</ele>
    <time>2018-04-25T07:22:22Z</time>
   </trkpt>
   <trkpt lat="41.3984200" lon="2.1828270">
    <ele>31.6</ele>
    <time>2018-04-25T07:22:27Z</time>
   </trkpt>
   <trkpt lat="41.3985770" lon="2.1829520">
    <ele>30.6</ele>
    <time>2018-04-25T07:22:31Z</time>
   </trkpt>
   <trkpt lat="41.3987060" lon="2.1832160">
    <ele>29.5</ele>
    <time>2018-04-25T07:22:36Z</time>
   </trkpt>
   <trkpt lat="41.3988570" lon="2.1833970">
    <ele>28.5</ele>
    <time>2018-04-25T07:22:40Z</time>
   </trkpt>
   <trkpt lat="41.3990670" lon="2.1835010">
    <ele>26.1</ele>
    <time>2018-04-25T07:23:06Z</time>
   </trkpt>
   <trkpt lat="41.3992470" lon="2.1835890">
    <ele>21.8</ele>
    <time>2018-04-25T07:23:10Z</time>
   </trkpt>
   <trkpt lat="41.3994440" lon="2.1837050">
    <ele>20.4</ele>
    <time>2018-04-25T07:23:14Z</time>
   </trkpt>
   <trkpt lat="41.3996460" lon="2.1838480">
    <ele>19.4</ele>
    <time>2018-04-25T07:23:18Z</time>
   </trkpt>
   <trkpt lat="41.3998320" lon="2.1839850">
    <ele>18.6</ele>
    <time>2018-04-25T07:23:22Z</time>
   </trkpt>
   <trkpt lat="41.3999990" lon="2.1841110">
    <ele>18.0</ele>
    <time>2018-04-25T07:23:26Z</time>
   </trkpt>
   <trkpt lat="41.4001830" lon="2.1842750">
    <ele>17.4</ele>
    <time>2018-04-25T07:23:31Z</time>
   </trkpt>
   <trkpt lat="41.4003820" lon="2.1843220">
    <ele>17.0</ele>
    <time>2018-04-25T07:23:39Z</time>
   </trkpt>
   <trkpt lat="41.4006060" lon="2.1842960">
    <ele>18.3</ele>
    <time>2018-04-25T07:23:44Z</time>
   </trkpt>
   <trkpt lat="41.4008200" lon="2.1844240">
    <ele>19.3</ele>
    <time>2018-04-25T07:23:49Z</time>
   </trkpt>
   <trkpt lat="41.4010130" lon="2.1845030">
    <ele>20.5</ele>
    <time>2018-04-25T07:23:53Z</time>
   </trkpt>
   <trkpt lat="41.4011830" lon="2.1845860">
    <ele>22.1</ele>
    <time>2018-04-25T07:23:58Z</time>
   </trkpt>
   <trkpt lat="41.4013640" lon="2.1847210">
    <ele>25.0</ele>
    <time>2018-04-25T07:24:04Z</time>
   </trkpt>
   <trkpt lat="41.4015360" lon="2.1848200">
    <ele>25.0</ele>
    <time>2018-04-25T07:24:09Z</time>
   </trkpt>
   <trkpt lat="41.4017240" lon="2.1848880">
    <ele>25.0</ele>
    <time>2018-04-25T07:24:14Z</time>
   </trkpt>
   <trkpt lat="41.4018940" lon="2.1849790">
    <ele>23.5</ele>
    <time>2018-04-25T07:24:18Z</time>
   </trkpt>
   <trkpt lat="41.4020290" lon="2.1852300">
    <ele>22.7</ele>
    <time>2018-04-25T07:24:22Z</time>
   </trkpt>
   <trkpt lat="41.4021690" lon="2.1854370">
    <ele>21.9</ele>
    <time>2018-04-25T07:24:26Z</time>
   </trkpt>
   <trkpt lat="41.4023140" lon="2.1856110">
    <ele>21.0</ele>
    <time>2018-04-25T07:24:30Z</time>
   </trkpt>
   <trkpt lat="41.4024310" lon="2.1858560">
    <ele>19.0</ele>
    <time>2018-04-25T07:24:35Z</time>
   </trkpt>
   <trkpt lat="41.4025520" lon="2.1860450">
    <ele>19.0</ele>
    <time>2018-04-25T07:24:39Z</time>
   </trkpt>
   <trkpt lat="41.4025940" lon="2.1861620">
    <ele>18.4</ele>
    <time>2018-04-25T07:24:41Z</time>
   </trkpt>
   <trkpt lat="41.4025770" lon="2.1864220">
    <ele>17.8</ele>
    <time>2018-04-25T07:24:45Z</time>
   </trkpt>
   <trkpt lat="41.4026240" lon="2.1866550">
    <ele>17.5</ele>
    <time>2018-04-25T07:24:51Z</time>
   </trkpt>
   <trkpt lat="41.4026420" lon="2.1867110">
    <ele>17.4</ele>
    <time>2018-04-25T07:24:52Z</time>
   </trkpt>
   <trkpt lat="41.4027010" lon="2.1869560">
    <ele>17.1</ele>
    <time>2018-04-25T07:24:56Z</time>
   </trkpt>
   <trkpt lat="41.4027950" lon="2.1872170">
    <ele>16.9</ele>
    <time>2018-04-25T07:25:00Z</time>
   </trkpt>
   <trkpt lat="41.4029130" lon="2.1874550">
    <ele>15.9</ele>
    <time>2018-04-25T07:25:04Z</time>
   </trkpt>
   <trkpt lat="41.4030580" lon="2.1876860">
    <ele>15.0</ele>
    <time>2018-04-25T07:25:08Z</time>
   </trkpt>
   <trkpt lat="41.4031490" lon="2.1877990">
    <ele>14.5</ele>
    <time>2018-04-25T07:25:10Z</time>
   </trkpt>
   <trkpt lat="41.4033350" lon="2.1879760">
    <ele>14.0</ele>
    <time>2018-04-25T07:25:14Z</time>
   </trkpt>
   <trkpt lat="41.4034370" lon="2.1880250">
    <ele>14.0</ele>
    <time>2018-04-25T07:25:17Z</time>
   </trkpt>
   <trkpt lat="41.4035350" lon="2.1880590">
    <ele>14.0</ele>
    <time>2018-04-25T07:26:06Z</time>
   </trkpt>
   <trkpt lat="41.4035450" lon="2.1882780">
    <ele>14.0</ele>
    <time>2018-04-25T07:26:12Z</time>
   </trkpt>
   <trkpt lat="41.4036510" lon="2.1884830">
    <ele>12.9</ele>
    <time>2018-04-25T07:26:19Z</time>
   </trkpt>
   <trkpt lat="41.4036140" lon="2.1887460">
    <ele>12.2</ele>
    <time>2018-04-25T07:26:37Z</time>
   </trkpt>
   <trkpt lat="41.4036880" lon="2.1888170">
    <ele>12.0</ele>
    <time>2018-04-25T07:26:39Z</time>
   </trkpt>
   <trkpt lat="41.4038050" lon="2.1889390">
    <ele>12.0</ele>
    <time>2018-04-25T07:26:42Z</time>
   </trkpt>
   <trkpt lat="41.4039050" lon="2.1891720">
    <ele>12.2</ele>
    <time>2018-04-25T07:26:46Z</time>
   </trkpt>
   <trkpt lat="41.4039200" lon="2.1892370">
    <ele>12.3</ele>
    <time>2018-04-25T07:26:47Z</time>
   </trkpt>
   <trkpt lat="41.4039270" lon="2.1893080">
    <ele>12.3</ele>
    <time>2018-04-25T07:26:48Z</time>
   </trkpt>
   <trkpt lat="41.4039800" lon="2.1896130">
    <ele>12.7</ele>
    <time>2018-04-25T07:26:52Z</time>
   </trkpt>
   <trkpt lat="41.4040330" lon="2.1898850">
    <ele>13.2</ele>
    <time>2018-04-25T07:26:55Z</time>
   </trkpt>
   <trkpt lat="41.4041250" lon="2.1901620">
    <ele>14.6</ele>
    <time>2018-04-25T07:26:58Z</time>
   </trkpt>
   <trkpt lat="41.4042010" lon="2.1904250">
    <ele>16.0</ele>
    <time>2018-04-25T07:27:01Z</time>
   </trkpt>
   <trkpt lat="41.4042710" lon="2.1906690">
    <ele>12.4</ele>
    <time>2018-04-25T07:27:04Z</time>
   </trkpt>
   <trkpt lat="41.4043240" lon="2.1909390">
    <ele>12.9</ele>
    <time>2018-04-25T07:27:07Z</time>
   </trkpt>
   <trkpt lat="41.4043860" lon="2.1911850">
    <ele>13.4</ele>
    <time>2018-04-25T07:27:10Z</time>
   </trkpt>
   <trkpt lat="41.4044510" lon="2.1914780">
    <ele>14.5</ele>
    <time>2018-04-25T07:27:14Z</time>
   </trkpt>
   <trkpt lat="41.4045160" lon="2.1917450">
    <ele>15.7</ele>
    <time>2018-04-25T07:27:18Z</time>
   </trkpt>
   <trkpt lat="41.4045240" lon="2.1920060">
    <ele>17.0</ele>
    <time>2018-04-25T07:27:24Z</time>
   </trkpt>
   <trkpt lat="41.4044530" lon="2.1922720">
    <ele>17.0</ele>
    <time>2018-04-25T07:28:08Z</time>
   </trkpt>
   <trkpt lat="41.4043480" lon="2.1924870">
    <ele>13.7</ele>
    <time>2018-04-25T07:28:15Z</time>
   </trkpt>
   <trkpt lat="41.4041500" lon="2.1926190">
    <ele>11.0</ele>
    <time>2018-04-25T07:28:25Z</time>
   </trkpt>
   <trkpt lat="41.4039100" lon="2.1925940">
    <ele>11.0</ele>
    <time>2018-04-25T07:28:32Z</time>
   </trkpt>
   <trkpt lat="41.4038220" lon="2.1925330">
    <ele>10.9</ele>
    <time>2018-04-25T07:28:59Z</time>
   </trkpt>
  </trkseg>
 </trk>
</gpx>
